{
  "entries":[
    {
      "key": "ELECTROTHAUMICTOOLS",
      "name": "tc.research_category.WEMT",
      "icons": ["welectromagic:textures/logo.png"],
      "category": "WEMT",
      "parents": ["~FIRSTSTEPS"],
      "siblings": [],
      "meta": ["ROUND", "SPIKY", "HIDDEN"],
      "location": [0, 0],
      "stages": [
        {
          "text": "wemt.research.WEMT.stage.2"
        }
      ]
    },
    {
      "key": "ELECTRICGOGGLES",
      "name": "item.welectromagic:itemElectricGoggles.name",
      "icons": ["welectromagic:itemElectricGoggles;1;1"],
      "category": "WEMT",
      "parents": ["~ELECTROTHAUMICTOOLS", "UNLOCKARTIFICE"],
      "siblings": [],
      "meta": ["ROUND", "HIDDEN"],
      "location": [1, -2],
      "stages": [
        {
          "text": "wemt.research.electricGoggles.stage.1",
          "required_craft": ["minecraft:diamond_helmet"]
        },
        {
          "text": "wemt.research.electricGoggles.stage.2",
          "recipes": ["welectromagic:electricGoggles"]
        }
      ]
    },
    {
      "key": "NANOGOGGLES",
      "name": "item.welectromagic:itemNanoGoggles.name",
      "icons": ["welectromagic:itemNanoGoggles;1;1"],
      "category": "WEMT",
      "parents": ["ELECTRICGOGGLES", "INFUSION"],
      "siblings": [],
      "meta": ["ROUND", "HIDDEN"],
      "location": [3, -2],
      "stages": [
        {
          "text": "wemt.research.nanoGoggles.stage.1",
          "required_craft": ["ic2:itemmisc;1;451"]
        },
        {
          "text": "wemt.research.nanoGoggles.stage.2",
          "recipes": ["welectromagic:nanoGoggles"]
        }
      ]
    },
    {
      "key": "QUANTUMGOGGLES",
      "name": "item.welectromagic:itemQuantumGoggles.name",
      "icons": ["welectromagic:itemQuantumGoggles;1;1"],
      "category": "WEMT",
      "parents": ["NANOGOGGLES"],
      "siblings": [],
      "meta": ["ROUND", "HIDDEN"],
      "location": [5, -2],
      "stages": [
        {
          "text": "wemt.research.quantumGoggles.stage.1",
          "required_craft": ["ic2:itemmisc;1;452"]
        },
        {
          "text": "wemt.research.quantumGoggles.stage.2",
          "recipes": ["welectromagic:quantumGoggles"]
        }
      ]
    },
    {
      "key": "ELECTRICBOOTS",
      "name": "item.welectromagic:itemElectricBoots.name",
      "icons": ["welectromagic:itemElectricBoots;1;1"],
      "category": "WEMT",
      "parents": ["~ELECTROTHAUMICTOOLS", "BOOTSTRAVELLER"],
      "siblings": [],
      "meta": ["ROUND", "HIDDEN"],
      "location": [2, 0],
      "stages": [
        {
          "text": "wemt.research.electricBoots.stage.1",
          "required_craft": ["thaumcraft:traveller_boots"]
        },
        {
          "text": "wemt.research.electricBoots.stage.2",
          "recipes": ["welectromagic:electricBoots"]
        }
      ]
    },
    {
      "key": "NANOBOOTS",
      "name": "item.welectromagic:itemNanoBoots.name",
      "icons": ["welectromagic:itemNanoBoots;1;1"],
      "category": "WEMT",
      "parents": ["ELECTRICBOOTS", "INFUSION", "METALLURGY"],
      "siblings": [],
      "meta": ["ROUND", "HIDDEN"],
      "location": [4, 0],
      "stages": [
        {
          "text": "wemt.research.nanoBoots.stage.1",
          "required_craft": ["ic2:itembatcrystal"]
        },
        {
          "text": "wemt.research.nanoBoots.stage.2",
          "recipes": ["welectromagic:nanoBoots"]
        }
      ]
    },
    {
      "key": "QUANTUMBOOTS",
      "name": "item.welectromagic:itemQuantumBoots.name",
      "icons": ["welectromagic:itemQuantumBoots;1;1"],
      "category": "WEMT",
      "parents": ["NANOBOOTS"],
      "siblings": [],
      "meta": ["ROUND", "HIDDEN"],
      "location": [6, 0],
      "stages": [
        {
          "text": "wemt.research.quantumBoots.stage.1",
          "required_craft": ["ic2:itembatlamacrystal"]
        },
        {
          "text": "wemt.research.quantumBoots.stage.2",
          "recipes": ["welectromagic:quantumBoots"]
        }
      ]
    },
    {
      "key": "ELECTRICSCRIBINGTOOLS",
      "name": "item.welectromagic:itemElectricScribingTools.name",
      "icons": ["welectromagic:itemElectricScribingTools;1;1"],
      "category": "WEMT",
      "parents": ["~ELECTROTHAUMICTOOLS", "~THEORYRESEARCH"],
      "siblings": [],
      "meta": ["ROUND", "HIDDEN"],
      "location": [-6, -5],
      "stages": [
        {
          "text": "wemt.research.electricScribingTools.stage.1",
          "required_craft": ["thaumcraft:scribing_tools;3"]
        },
        {
          "text": "wemt.research.electricScribingTools.stage.2",
          "recipes": ["welectromagic:scribingTools"]
        }
      ]
    },
    {
      "key": "ELECTRICHOE",
      "name": "item.welectromagic:itemElectricHoe.name",
      "icons": ["welectromagic:itemElectricHoe;1;1"],
      "category": "WEMT",
      "parents": ["~ELECTROTHAUMICTOOLS", "ELEMENTALTOOLS"],
      "siblings": [],
      "meta": ["ROUND", "HIDDEN"],
      "location": [-1, -2],
      "stages": [
        {
          "text": "wemt.research.electricHoe.stage.1",
          "required_craft": ["thaumcraft:elemental_hoe"]
        },
        {
          "text": "wemt.research.electricHoe.stage.2",
          "recipes": ["welectromagic:electricHoe"]
        }
      ]
    },
    {
      "key": "DIAMONDCHAINSAW",
      "name": "item.welectromagic:itemDiamondChainsaw.name",
      "icons": ["welectromagic:itemDiamondChainsaw"],
      "category": "WEMT",
      "parents": ["~FIRSTSTEPS"],
      "siblings": [],
      "meta": ["ROUND"],
      "location": [5, -6],
      "stages": [
        {
          "text": "wemt.research.diamondChainsaw.stage.1",
          "required_craft": ["ic2:itemtoolchainsaw"]
        },
        {
          "text": "wemt.research.diamondChainsaw.stage.2",
          "recipes": ["welectromagic:diamondchainsaw"]
        }
      ]
    },
    {
      "key": "MACERATINGCLUSTERS",
      "name": "wemt.research.itemCluster.name",
      "icons": ["welectromagic:itemMaterial"],
      "category": "WEMT",
      "parents": ["~ELECTROTHAUMICTOOLS", "METALPURIFICATION"],
      "siblings": [],
      "meta": ["ROUND", "HIDDEN"],
      "location": [5, -7],
      "stages": [
        {
          "text": "wemt.research.itemCluster.stage.2",
          "required_item": ["minecraft:flint"]
        },
        {
          "text": "wemt.research.itemCluster.stage.2"
        }
      ],
      "addenda": [
        {
          "text": "wemt.research.itemCluster.addenda",
          "required_research":["p_ic2c_extras"]
        }
      ]
    },
    {
      "key": "ONERING",
      "name": "item.welectromagic:itemOneRing.name",
      "icons": ["thaumcraft:baubles;1;1"],
      "category": "WEMT",
      "parents": ["~FIRSTSTEPS", "~BASEINFUSION"],
      "siblings": [],
      "meta": ["ROUND"],
      "location": [6, -7],
      "stages": [
        {
          "text": "wemt.research.itemOneRing.stage.2",
          "warp": 2
        }
      ]
    },
    {
      "key": "THAUMIUMDRILL",
      "name": "item.welectromagic:itemThaumiumDrill.name",
      "icons": ["welectromagic:itemThaumiumDrill"],
      "category": "WEMT",
      "parents": ["~ELECTROTHAUMICTOOLS", "METALLURGY", "INFUSION"],
      "siblings": [],
      "meta": ["ROUND", "HIDDEN"],
      "location": [-5, -4],
      "stages": [
        {
          "text": "wemt.research.itemThaumiumDrill.stage.1",
          "required_craft": ["ic2:itemdrills;1;1"]
        },
        {
          "text": "wemt.research.itemThaumiumDrill.stage.2",
          "recipes": ["welectromagic:thaumiumdrill"]
        }
      ]
    },
    {
      "key": "THAUMIUMCHAINSAW",
      "name": "item.welectromagic:itemThaumiumChainsaw.name",
      "icons": ["welectromagic:itemThaumiumChainsaw"],
      "category": "WEMT",
      "parents": ["~ELECTROTHAUMICTOOLS", "METALLURGY", "INFUSION", "~DIAMONDCHAINSAW"],
      "siblings": [],
      "meta": ["ROUND", "HIDDEN"],
      "location": [-1, -4],
      "stages": [
        {
          "text": "wemt.research.itemThaumiumChainsaw.stage.1",
          "required_craft": ["welectromagic:itemDiamondChainsaw"]
        },
        {
          "text": "wemt.research.itemThaumiumChainsaw.stage.2",
          "recipes": ["welectromagic:thaumiumchainsaw"]
        }
      ]
    },
    {
      "key": "STREAMCHAINSAW",
      "name": "item.welectromagic:itemStreamChainsaw.name",
      "icons": ["welectromagic:itemStreamChainsaw"],
      "category": "WEMT",
      "parents": ["THAUMIUMCHAINSAW", "~ELEMENTALTOOLS"],
      "siblings": [],
      "meta": ["ROUND", "HIDDEN", "REVERSE"],
      "location": [-3, -6],
      "stages": [
        {
          "text": "wemt.research.itemStreamChainsaw.stage.1",
          "required_craft": ["thaumcraft:elemental_pick"],
          "required_item": ["thaumcraft:log_greatwood"]
        },
        {
          "text": "wemt.research.itemStreamChainsaw.stage.2",
          "recipes": ["welectromagic:streamchainsaw"]
        }
      ]
    },
    {
      "key": "IRONOMNITOOL",
      "name": "item.welectromagic:itemIronOmniTool.name",
      "icons": ["welectromagic:itemIronOmniTool"],
      "category": "WEMT",
      "parents": ["~ELECTROTHAUMICTOOLS"],
      "siblings": [],
      "meta": ["ROUND", "HIDDEN"],
      "location": [-2, 0],
      "stages": [
        {
          "text": "wemt.research.itemOmniTool.stage.1",
          "required_item": ["minecraft:iron_ingot"]
        },
        {
          "text": "wemt.research.itemOmniTool.stage.2",
          "recipes": ["welectromagic:itemironomnitool"]
        }
      ]
    },
    {
      "key": "DIAMONDOMNITOOL",
      "name": "item.welectromagic:itemDiamondOmniTool.name",
      "icons": ["welectromagic:itemDiamondOmniTool"],
      "category": "WEMT",
      "parents": ["IRONOMNITOOL"],
      "siblings": [],
      "meta": ["ROUND", "HIDDEN"],
      "location": [-4, 0],
      "stages": [
        {
          "text": "wemt.research.itemDiamondOmniTool.stage.1",
          "required_item": ["ic2:itemmisc;1;452"]
        },
        {
          "text": "wemt.research.itemDiamondOmniTool.stage.2",
          "recipes": ["welectromagic:diamondomnitoolupgrade"]
        }
      ],
      "addenda": [
        {
          "text": "",
          "recipes": ["welectromagic:diamondomnitool"],
          "required_research":["DIAMONDCHAINSAW"]
        }
      ]
    },
    {
      "key": "THAUMIUMOMNITOOL",
      "name": "item.welectromagic:itemThaumiumOmniTool.name",
      "icons": ["welectromagic:itemThaumiumOmniTool"],
      "category": "WEMT",
      "parents": ["DIAMONDOMNITOOL", "METALLURGY@2", "INFUSION"],
      "siblings": [],
      "meta": ["ROUND", "HIDDEN"],
      "location": [-6, 0],
      "stages": [
        {
          "text": "wemt.research.itemThaumicOmniTool.stage.1",
          "required_item": ["ic2:itemmisc;1;256"]
        },
        {
          "text": "wemt.research.itemThaumicOmniTool.stage.2",
          "recipes": ["thaumcraft:nitor"]
        }
      ],
      "addenda": [
        {
          "text": "wemt.research.itemThaumicOmniTool.addenda.1",
          "recipes": ["welectromagic:thaumiumtool"],
          "required_research":["THAUMIUMCHAINSAW", "METALLURGY", "THAUMIUMDRILL"]
        },
        {
          "text": "",
          "recipes": ["welectromagic:thaumiumomnitoolupgrade"],
          "required_research":["TUBES"]
        }
      ]
    },
    {
      "key": "INVENTORYCHARGINGRING",
      "name": "item.welectromagic:itemChargeRing1.name",
      "icons": ["welectromagic:itemChargeRing;1;1"],
      "category": "WEMT",
      "parents": ["~INFUSION", "~THAUMIUMDRILL"],
      "siblings": [],
      "meta": ["ROUND", "HIDDEN"],
      "location": [-6, -2],
      "stages": [
        {
          "text": "wemt.research.itemInventoryRing.stage.1",
          "required_item": ["ic2:itemmisc;1;452"],
          "warp": 2
        },
        {
          "text": "wemt.research.itemInventoryRing.stage.2",
          "recipes": ["welectromagic:inventoryring"]
        }
      ]
    },
    {
      "key": "ARMOURCHARGINGRING",
      "name": "item.welectromagic:itemChargeRing0.name",
      "icons": ["welectromagic:itemChargeRing"],
      "category": "WEMT",
      "parents": ["INVENTORYCHARGINGRING", "~INFUSION", "~ELECTRICBOOTS"],
      "siblings": [],
      "meta": ["ROUND", "HIDDEN"],
      "location": [-8, -2],
      "stages": [
        {
          "text": "wemt.research.itemArmourRing.stage.1",
          "required_item": ["ic2:itemmisc;1;452"],
          "warp": 2
        },
        {
          "text": "wemt.research.itemArmourRing.stage.2",
          "recipes": ["welectromagic:armourring"]
        }
      ]
    },
    {
      "key": "LIGHTNINGSUMMONER",
      "name": "item.welectromagic:itemMaterialLightningSummoner.name",
      "icons": ["welectromagic:itemMaterial;1;1"],
      "category": "WEMT",
      "parents": ["FIRSTSTEPS"],
      "siblings": [],
      "meta": ["ROUND"],
      "location": [6, -5],
      "stages": [
        {
          "text": "wemt.research.itemLightningSummoner.stage.2"
        }
      ]
    },
    {
      "key": "FEATHERWINGS",
      "name": "item.welectromagic:itemFeatherWings.name",
      "icons": ["welectromagic:itemFeatherWings"],
      "category": "WEMT",
      "parents": ["~ELECTROTHAUMICTOOLS"],
      "siblings": [],
      "meta": ["ROUND", "HIDDEN"],
      "location": [0, -2],
      "stages": [
        {
          "text": "wemt.research.itemFeatherWings.stage.1",
          "required_craft": ["welectromagic:itemmaterial;1;2"],
          "recipes": ["welectromagic:feathermesh"]
        },
        {
          "text": "wemt.research.itemFeatherWings.stage.2",
          "recipes": ["welectromagic:cardboard", "welectromagic:ducttape", "welectromagic:feathermesh", "welectromagic:featherwing", "welectromagic:featherwings"]
        }
      ]
    },
    {
      "key": "THAUMICWINGS",
      "name": "item.welectromagic:itemThaumiumWings.name",
      "icons": ["welectromagic:itemThaumiumWings"],
      "category": "WEMT",
      "parents": ["FEATHERWINGS", "METALLURGY"],
      "siblings": [],
      "meta": ["ROUND", "HIDDEN"],
      "location": [0, -4],
      "stages": [
        {
          "text": "wemt.research.itemThaumiumWings.stage.1",
          "required_craft": ["welectromagic:itemmaterial;1;2"]
        },
        {
          "text": "wemt.research.itemThaumiumWings.stage.2",
          "recipes": ["welectromagic:thaumiumwing", "welectromagic:thaumiumwings"]
        }
      ]
    },
    {
      "key": "NANOWINGS",
      "name": "item.welectromagic:itemNanoWings.name",
      "icons": ["welectromagic:itemNanoWings"],
      "category": "WEMT",
      "parents": ["THAUMICWINGS", "INFUSION"],
      "siblings": [],
      "meta": ["ROUND", "HIDDEN"],
      "location": [0, -6],
      "stages": [
        {
          "text": "wemt.research.itemNanoWings.stage.1",
          "required_item": ["thaumcraft:nitor_yellow"]
        },
        {
          "text": "wemt.research.itemNanoWings.stage.2",
          "recipes": ["welectromagic:nanowings"]
        }
      ]
    },
    {
      "key": "QUANTUMWINGS",
      "name": "item.welectromagic:itemQuantumWings.name",
      "icons": ["welectromagic:itemQuantumWings"],
      "category": "WEMT",
      "parents": ["NANOWINGS"],
      "siblings": [],
      "meta": ["ROUND", "HIDDEN"],
      "location": [0, -8],
      "stages": [
        {
          "text": "wemt.research.itemQuantumWings.stage.1",
          "required_item": ["thaumcraft:nitor_yellow"]
        },
        {
          "text": "wemt.research.itemQuantumWings.stage.2",
          "recipes": ["welectromagic:quantumwings"]
        }
      ]
    },
    {
      "key": "ROCKBREAKERDRILL",
      "name": "item.welectromagic:itemRockbreakerDrill.name",
      "icons": ["welectromagic:itemRockbreakerDrill"],
      "category": "WEMT",
      "parents": ["THAUMIUMDRILL", "ELEMENTALTOOLS"],
      "siblings": [],
      "meta": ["ROUND", "HIDDEN", "REVERSE"],
      "location": [-3, -2],
      "stages": [
        {
          "text": "wemt.research.itemRockbreakerDrill.stage.1",
          "required_craft": ["thaumcraft:elemental_pick"]
        },
        {
          "text": "wemt.research.itemRockbreakerDrill.stage.2",
          "recipes": ["welectromagic:rockbreakerdrill"]
        }
      ]
    },
    {
      "key": "UUCRYSTAL",
      "name": "wemt.research.crystalUU.name",
      "icons": ["welectromagic:itemMaterial;1;10"],
      "category": "WEMT",
      "parents": ["UNLOCKALCHEMY", "INFUSION"],
      "siblings": [],
      "meta": ["ROUND", "HIDDEN"],
      "location": [5, -5],
      "stages": [
        {
          "text": "wemt.research.crystalUU.stage.1",
          "required_knowledge": ["THEORY;ELDRITCH;1", "THEORY;INFUSION;1"]
        },
        {
          "text": "wemt.research.crystalUU.stage.2",
          "recipes": ["welectromagic:uumattercrystal", "welectromagic:uuglowstone", "welectromagic:uulapis",
            "welectromagic:uuredstone", "welectromagic:uuresin", "welectromagic:uucoal", "welectromagic:uuuranium",
            "welectromagic:uulead", "welectromagic:uutin", "welectromagic:uucopper", "welectromagic:uuiron",
            "welectromagic:uugold", "welectromagic:uudiamond", "welectromagic:uuuraniumd", "welectromagic:uuiridium"
          ],
          "warp": 5
        }
      ]
    },
    {
      "key": "COMPRESSEDSOLAR",
      "name": "item.welectromagic:blockSolarPanel.name",
      "icons": ["welectromagic:blockSolarPanel", "welectromagic:blockSolarPanel;1;8"],
      "category": "WEMT",
      "parents": ["~ELECTROTHAUMICTOOLS", "UNLOCKALCHEMY"],
      "siblings": [],
      "meta": ["ROUND", "HIDDEN"],
      "location": [9, -2],
      "stages": [
        {
          "text": "wemt.research.blockSolarPanel.stage.1",
          "required_item":[
            "thaumcraft:crystal_essence;1;0;{Aspects:[{amount:1,key:'aer'}]}",
            "thaumcraft:crystal_essence;1;0;{Aspects:[{amount:1,key:'terra'}]}",
            "thaumcraft:crystal_essence;1;0;{Aspects:[{amount:1,key:'ignis'}]}",
            "thaumcraft:crystal_essence;1;0;{Aspects:[{amount:1,key:'aqua'}]}",
            "thaumcraft:crystal_essence;1;0;{Aspects:[{amount:1,key:'ordo'}]}",
            "thaumcraft:crystal_essence;1;0;{Aspects:[{amount:1,key:'perditio'}]}"
          ]
        },
        {
          "text": "wemt.research.blockSolarPanel.stage.2",
          "recipes": ["welectromagic:basicCompressed", "welectromagic:basicCompressed2"],
          "warp": 2
        }
      ],
      "addenda": [
        {
          "text": "wemt.research.blockSolarPanel.addenda",
          "recipes": ["welectromagic:basicCompressed3"],
          "required_research":["INFUSION"],
          "warp": 1
        }
      ]
    },
    {
      "key": "COMPRESSEDSOLARAQUA",
      "name": "wemt.research.blockSolarAqua.name",
      "icons": ["welectromagic:blockSolarPanel;1;1", "welectromagic:blockSolarPanel;1;9"],
      "category": "WEMT",
      "parents": ["COMPRESSEDSOLAR"],
      "siblings": [],
      "meta": ["ROUND", "HIDDEN", "REVERSE"],
      "location": [10, -1],
      "stages": [
        {
          "text": "wemt.research.blockSolarAqua.stage.1",
          "required_item":[
            "thaumcraft:crystal_essence;1;0;{Aspects:[{amount:1,key:'aqua'}]}"
          ]
        },
        {
          "text": "wemt.research.blockSolarAqua.stage.2",
          "recipes": ["welectromagic:aquaCompressed", "welectromagic:aquaCompressed2"],
          "warp": 1
        }
      ],
      "addenda": [
        {
          "text": "",
          "recipes": ["welectromagic:aquaCompressed3"],
          "required_research":["INFUSION"],
          "warp": 1
        }
      ]
    },
    {
      "key": "COMPRESSEDSOLARPERDITIO",
      "name": "wemt.research.blockSolarPerditio.name",
      "icons": ["welectromagic:blockSolarPanel;1;2", "welectromagic:blockSolarPanel;1;10"],
      "category": "WEMT",
      "parents": ["COMPRESSEDSOLAR"],
      "siblings": [],
      "meta": ["ROUND", "HIDDEN"],
      "location": [9, 0],
      "stages": [
        {
          "text": "wemt.research.blockSolarPerditio.stage.1",
          "required_item":[
            "thaumcraft:crystal_essence;1;0;{Aspects:[{amount:1,key:'perditio'}]}"
          ]
        },
        {
          "text": "wemt.research.blockSolarPerditio.stage.2",
          "recipes": ["welectromagic:perditioCompressed", "welectromagic:perditioCompressed2"],
          "warp": 1
        }
      ],
      "addenda": [
        {
          "text": "",
          "recipes": ["welectromagic:perditioCompressed3"],
          "required_research":["INFUSION"],
          "warp": 2
        }
      ]
    },
    {
      "key": "COMPRESSEDSOLARORDO",
      "name": "wemt.research.blockSolarOrdo.name",
      "icons": ["welectromagic:blockSolarPanel;1;3", "welectromagic:blockSolarPanel;1;11"],
      "category": "WEMT",
      "parents": ["COMPRESSEDSOLAR"],
      "siblings": [],
      "meta": ["ROUND", "HIDDEN"],
      "location": [9, -4],
      "stages": [
        {
          "text": "wemt.research.blockSolarOrdo.stage.1",
          "required_item":[
            "thaumcraft:crystal_essence;1;0;{Aspects:[{amount:1,key:'ordo'}]}"
          ]
        },
        {
          "text": "wemt.research.blockSolarOrdo.stage.2",
          "recipes": ["welectromagic:ordoCompressed", "welectromagic:ordoCompressed2"],
          "warp": 2
        }
      ],
      "addenda": [
        {
          "text": "",
          "recipes": ["welectromagic:ordoCompressed3"],
          "required_research":["INFUSION"],
          "warp": 4
        }
      ]
    },
    {
      "key": "COMPRESSEDSOLARIGNIS",
      "name": "wemt.research.blockSolarIgnis.name",
      "icons": ["welectromagic:blockSolarPanel;1;4", "welectromagic:blockSolarPanel;1;12"],
      "category": "WEMT",
      "parents": ["COMPRESSEDSOLAR"],
      "siblings": [],
      "meta": ["ROUND", "HIDDEN", "REVERSE"],
      "location": [8, -3],
      "stages": [
        {
          "text": "wemt.research.blockSolarIgnis.stage.1",
          "required_item":[
            "thaumcraft:crystal_essence;1;0;{Aspects:[{amount:1,key:'ignis'}]}"
          ]
        },
        {
          "text": "wemt.research.blockSolarIgnis.stage.2",
          "recipes": ["welectromagic:ignisCompressed", "welectromagic:ignisCompressed2"],
          "warp": 2
        }
      ],
      "addenda": [
        {
          "text": "",
          "recipes": ["welectromagic:ignisCompressed3"],
          "required_research":["INFUSION"],
          "warp": 2
        }
      ]
    },
    {
      "key": "COMPRESSEDSOLARAER",
      "name": "wemt.research.blockSolarAer.name",
      "icons": ["welectromagic:blockSolarPanel;1;5", "welectromagic:blockSolarPanel;1;13"],
      "category": "WEMT",
      "parents": ["COMPRESSEDSOLAR"],
      "siblings": [],
      "meta": ["ROUND", "HIDDEN", "REVERSE"],
      "location": [10,-3],
      "stages": [
        {
          "text": "wemt.research.blockSolarAer.stage.1",
          "required_item":[
            "thaumcraft:crystal_essence;1;0;{Aspects:[{amount:1,key:'aer'}]}"
          ]
        },
        {
          "text": "wemt.research.blockSolarAer.stage.2",
          "recipes": ["welectromagic:aerCompressed", "welectromagic:aerCompressed2"]
        }
      ],
      "addenda": [
        {
          "text": "",
          "recipes": ["welectromagic:aerCompressed3"],
          "required_research":["INFUSION"],
          "warp": 1
        }
      ]
    },
    {
      "key": "COMPRESSEDSOLARTERRA",
      "name": "wemt.research.blockSolarTerra.name",
      "icons": ["welectromagic:blockSolarPanel;1;6", "welectromagic:blockSolarPanel;1;14"],
      "category": "WEMT",
      "parents": ["COMPRESSEDSOLAR"],
      "siblings": [],
      "meta": ["ROUND", "HIDDEN", "REVERSE"],
      "location": [8, -1],
      "stages": [
        {
          "text": "wemt.research.blockSolarTerra.stage.1",
          "required_item":[
            "thaumcraft:crystal_essence;1;0;{Aspects:[{amount:1,key:'terra'}]}"
          ]
        },
        {
          "text": "wemt.research.blockSolarTerra.stage.2",
          "recipes": ["welectromagic:terraCompressed", "welectromagic:terraCompressed2"],
          "warp": 1
        }
      ],
      "addenda": [
        {
          "text": "",
          "recipes": ["welectromagic:terraCompressed3"],
          "required_research":["INFUSION"],
          "warp": 1
        }
      ]
    },
    {
      "key": "TAINTEDLEGEND",
      "name": "wemt.research.itemStormCaster.name",
      "icons": ["welectromagic:itemMjolnir"],
      "category": "WEMT",
      "parents": ["~ELECTROTHAUMICTOOLS"],
      "siblings": [],
      "meta": ["ROUND"],
      "location": [5, -4],
      "stages": [
        {
          "text": "wemt.research.itemStormCaster.stage.1",
          "required_item":[
            "minecraft:rotten_flesh"
          ]
        },
        {
          "text": "wemt.research.itemStormCaster.stage.2"
        }
      ]
    },
    {
      "key": "MJOLNIR",
      "name": "item.welectromagic:itemMjolnir.name",
      "icons": ["welectromagic:itemMjolnir"],
      "category": "WEMT",
      "parents": ["~TAINTEDLEGEND", "~LIGHTNINGSUMMONER", "ELEMENTALTOOLS", "p_stormcaster"],
      "siblings": [],
      "meta": ["ROUND","HIDDEN"],
      "location": [3, -4],
      "stages": [
        {
          "text": "wemt.research.itemMjolnir.stage.1",
          "required_item":[
            "welectromagic:itemMaterial;1;1"
          ]
        },
        {
          "text": "wemt.research.itemMjolnir.stage.2",
          "recipes": ["welectromagic:mjolnir"]
        }
      ]
    },
    {
      "key": "STORMBREAKER",
      "name": "item.welectromagic:itemStormBreaker.name",
      "icons": ["welectromagic:itemStormBreaker"],
      "category": "WEMT",
      "parents": ["MJOLNIR"],
      "siblings": [],
      "meta": ["ROUND", "REVERSE", "HIDDEN", "SPIKY"],
      "location": [2, -5],
      "stages": [
        {
          "text": "wemt.research.itemStormBreaker.stage.1",
          "required_item":[
            "welectromagic:itemMaterial;1;1"
          ]
        },
        {
          "text": "wemt.research.itemStormBreaker.stage.2",
          "recipes": ["welectromagic:stormbreaker"]
        }
      ]
    },
    {
      "key": "GENERATORPOTENTIA",
      "name": "wemt.research.blockEssentiaGeneratorPotentia.name",
      "icons": ["welectromagic:blockEssentiaGenerator"],
      "category": "WEMT",
      "parents": ["~ELECTROTHAUMICTOOLS", "INFUSION", "WARDEDJARS"],
      "siblings": [],
      "meta": ["ROUND", "HIDDEN"],
      "location": [-2, 4],
      "stages": [
        {
          "text": "wemt.research.blockEssentiaGeneratorPotentia.stage.1",
          "required_item":[
            "thaumcraft:crystal_essence;1;0;{Aspects:[{amount:1,key:'potentia'}]}",
            "thaumcraft:crystal_essence;1;0;{Aspects:[{amount:1,key:'permutatio'}]}"
          ],
          "required_knowledge": ["THEORY;INFUSION;1"]
        },
        {
          "text": "wemt.research.blockEssentiaGeneratorPotentia.stage.2",
          "recipes": ["welectromagic:generatorPotentia"]
        }
      ]
    },
    {
      "key": "GENERATORIGNIS",
      "name": "wemt.research.blockEssentiaGeneratorIgnis.name",
      "icons": ["welectromagic:blockEssentiaGenerator"],
      "category": "WEMT",
      "parents": ["GENERATORPOTENTIA"],
      "siblings": [],
      "meta": ["ROUND", "HIDDEN"],
      "location": [-3, 3],
      "stages": [
        {
          "text": "wemt.research.blockEssentiaGeneratorIgnis.stage.1",
          "required_item":[
            "thaumcraft:crystal_essence;1;0;{Aspects:[{amount:1,key:'ignis'}]}",
            "thaumcraft:crystal_essence;1;0;{Aspects:[{amount:1,key:'permutatio'}]}"
          ]
        },
        {
          "text": "wemt.research.blockEssentiaGeneratorIgnis.stage.2",
          "recipes": ["welectromagic:ignisgenerator"]
        }
      ]
    },
    {
      "key": "GENERATORAURAM",
      "name": "wemt.research.blockEssentiaGeneratorAuram.name",
      "icons": ["welectromagic:blockEssentiaGenerator"],
      "category": "WEMT",
      "parents": ["GENERATORPOTENTIA"],
      "siblings": [],
      "meta": ["ROUND", "HIDDEN"],
      "location": [-1, 3],
      "stages": [
        {
          "text": "wemt.research.blockEssentiaGeneratorAuram.stage.1",
          "required_item":[
            "thaumcraft:crystal_essence;1;0;{Aspects:[{amount:1,key:'auram'}]}",
            "thaumcraft:crystal_essence;1;0;{Aspects:[{amount:1,key:'permutatio'}]}"
          ]
        },
        {
          "text": "wemt.research.blockEssentiaGeneratorAuram.stage.2",
          "recipes": ["welectromagic:auramgenerator"],
          "warp": 2
        }
      ]
    },
    {
      "key": "GENERATORAER",
      "name": "wemt.research.blockEssentiaGeneratorAer.name",
      "icons": ["welectromagic:blockEssentiaGenerator"],
      "category": "WEMT",
      "parents": ["GENERATORPOTENTIA"],
      "siblings": [],
      "meta": ["ROUND", "HIDDEN"],
      "location": [-2, 2],
      "stages": [
        {
          "text": "wemt.research.blockEssentiaGeneratorAer.stage.1",
          "required_item":[
            "thaumcraft:crystal_essence;1;0;{Aspects:[{amount:1,key:'aer'}]}",
            "thaumcraft:crystal_essence;1;0;{Aspects:[{amount:1,key:'permutatio'}]}"
          ]
        },
        {
          "text": "wemt.research.blockEssentiaGeneratorAer.stage.2",
          "recipes": ["welectromagic:aergenerator"]
        }
      ]
    },
    {
      "key": "CHARGINGSTATION",
      "name": "tile.welectromagic:blockChargePedestal.name",
      "icons": ["welectromagic:blockChargePedestal"],
      "category": "WEMT",
      "parents": ["GENERATORPOTENTIA", "RECHARGEPEDESTAL"],
      "siblings": [],
      "meta": ["ROUND", "HIDDEN"],
      "location": [-2, 6],
      "stages": [
        {
          "text": "wemt.research.blockChargePedestal.stage.1",
          "required_knowledge": ["THEORY;ELDRITCH;1", "THEORY;INFUSION;1"]
        },
        {
          "text": "wemt.research.blockChargePedestal.stage.2",
          "recipes": ["welectromagic:industrialVisCharger"]
        }
      ]
    },
    {
      "key": "ENTROPYSTAFF",
      "name": "item.welectromagic:itemEntropyStaff.name",
      "icons": ["welectromagic:itemEntropyStaff"],
      "category": "WEMT",
      "parents": ["~ELECTROTHAUMICTOOLS", "BASICALCHEMY", "INFUSION"],
      "siblings": [],
      "meta": ["ROUND", "HIDDEN"],
      "location": [1, 2],
      "stages": [
        {
          "text": "wemt.research.itemEfferetsFlame.stage.1",
          "required_knowledge": ["THEORY;ELDRITCH;1", "THEORY;INFUSION;1"],
          "required_research":["!ignis","!gelum"]
        },
        {
          "text": "wemt.research.itemEfferetsFlame.stage.2",
          "recipes": ["welectromagic:entropyStaff"]
        }
      ]
    },
    {
      "key": "KAPPAARM",
      "name": "item.welectromagic:itemKappaArm.name",
      "icons": ["welectromagic:itemKappaArm"],
      "category": "WEMT",
      "parents": ["~ELECTROTHAUMICTOOLS", "BASICALCHEMY"],
      "siblings": [],
      "meta": ["ROUND", "HIDDEN"],
      "location": [1, 4],
      "stages": [
        {
          "text": "wemt.research.itemKappaArm.stage.1",
          "required_knowledge": ["THEORY;ARTIFICE;1"],
          "required_research":["!instrumentum","!machina", "!motus"]
        },
        {
          "text": "wemt.research.itemKappaArm.stage.2",
          "recipes": ["welectromagic:kappaArm"]
        }
      ]
    }
  ]
}